[gd_resource type="AtlasTexture" load_steps=2 format=2]

[sub_resource type="StreamTexture" id=1]
flags = 4
load_path = "res://.import/icons_game.png-a6cd12469c3ca3366372e744305360e0.stex"

[resource]
flags = 4
atlas = SubResource( 1 )
region = Rect2( 676, 19, 172, 171 )
