[gd_scene load_steps=2 format=2]

[sub_resource type="Gradient" id=1]

[node name="Node2D" type="Node2D"]

[node name="Line2D" type="Line2D" parent="."]
points = PoolVector2Array( -123, 353, 551, -224, 1233, -108, 358, 619, -273, 1173, 171, 1319, 1142, 954, 1666, 218, 2010, -71, 2468, 246, 1883, 847, 1536, 1355 )
width = 1000.0
default_color = Color( 0.4, 0.501961, 1, 1 )
gradient = SubResource( 1 )
