[gd_scene load_steps=2 format=2]

[ext_resource path="res://Assets/ui/icons/exit.tres" type="Texture" id=1]

[node name="ExitButton" type="Control"]
anchor_right = 0.0895833
anchor_bottom = 0.158333
__meta__ = {
"_edit_group_": true
}

[node name="TextureButton" type="TextureButton" parent="."]
margin_right = 172.0
margin_bottom = 171.0
texture_normal = ExtResource( 1 )
