[gd_scene load_steps=5 format=2]

[ext_resource path="res://Elements/Old/GamePlay/SpawnPoint.gd" type="Script" id=1]

[sub_resource type="CubeMesh" id=1]

[sub_resource type="SpatialMaterial" id=2]
albedo_color = Color( 0, 0, 0, 1 )
emission_enabled = true
emission = Color( 0, 1, 0, 1 )
emission_energy = 1.0
emission_operator = 0
emission_on_uv2 = false

[sub_resource type="GDScript" id=3]
script/source = "extends Spatial

func _ready():
	queue_free()
"

[node name="SpawnPoint" type="Spatial" groups=[
"spawnPoint",
]]
script = ExtResource( 1 )

[node name="MeshInstance" type="MeshInstance" parent="."]
transform = Transform( 0.25, 0, 0, 0, 0.5, 0, 0, 0, 0.25, 0, 0, 0 )
cast_shadow = 0
mesh = SubResource( 1 )
material/0 = SubResource( 2 )
script = SubResource( 3 )
