[gd_scene load_steps=6 format=2]

[ext_resource path="res://Elements/NameList.gd" type="Script" id=1]
[ext_resource path="res://Elements/Player.tscn" type="PackedScene" id=2]

[sub_resource type="GDScript" id=1]
script/source = "extends Node

var playerName

signal joinLobby()
signal leaveLobby()
signal playerJoin(id)
signal playerLeave(id)
signal error(err)
signal statusChange(status)
signal declareWinner(winner)

enum GAME_STATUS {
	NULL,
	MENU,
	WAITING_FOR_PLAYER,
	WAITING_TO_START,
	CHAOS_TURN,
	ORDER_TURN,
	WIN_SCREEN
}
var gameStatus = GAME_STATUS.MENU setget setStatus

enum SIDE {
	NULL = GAME_STATUS.NULL,
	ORDER = GAME_STATUS.ORDER_TURN,
	CHAOS = GAME_STATUS.CHAOS_TURN
}

var hostSide = SIDE.NULL
var playerSide = SIDE.NULL

enum COLOR {
	NULL, GREEN,RED, BLUE
}

enum ERROR {
	PLAYER_MESSAGE,
	NETWORK
}

enum EMOJI {
	NULL,
	BRAIN, 
	MATH , 
	THUMB , 
	HEART, 
	SWEAT, 
	TIME,
	ORDER,
	CHAOS
}


#signal lobbyJoin()
##signal playerJoin(id)
#signal connecting()
#signal connected()
#signal disconnect()

var random = RandomNumberGenerator.new()

func _ready():
	connect(\"statusChange\",self,\"statusChange\")


func joinLobby(lobbyInfo):
	if lobbyInfo is String:
		$NetworkManager.joinLobby(lobbyInfo)
	else:
		var success = yield(lobbyInfo.join(), \"completed\")
		if success:
			$NetworkManager.joinLobby(Gotm.lobby.host.address)
		else:
			print(\"FAILED TO CONNECT WITH GOTM'S TOOLS\")
			pass #failed!

func tryConnectNetwork():
	$NetworkManager.tryConnectFromLink()



func hostLobby():
	$NetworkManager.hostLobby()

func leaveLobby():
	$NetworkManager.reset()
	setStatus(GAME_STATUS.MENU)

func getRandomName()->String:
	return $NameList.names[random.randi() %$NameList.names.size()]



func setStatus(value):
	gameStatus = value
	emit_signal(\"statusChange\",gameStatus)


func getPlayers()->Array:
	return $Players.get_children()

func getPlayer(id):
	return get_node(\"Players/P\" + String(id)) 

func isCurrentPlayerTurn():
	return playerSide == gameStatus
			

func currentSideTurn():
	if get_tree().get_network_unique_id() == 1:
		return hostSide
	else:
		if hostSide == SIDE.CHAOS:
			return SIDE.ORDER
		elif hostSide == SIDE.ORDER:
			return SIDE.CHAOS
		else:
			return SIDE.NULL
	return false

remotesync func setGameStatus(state):
	setStatus(state)

func globalSetGameStatus(state):
	if get_tree().has_network_peer():
		rpc(\"setGameStatus\",state)
	else:
		setGameStatus(state)

remotesync func declareWinner(winState):
	emit_signal(\"declareWinner\",winState)
	setStatus(GAME_STATUS.WIN_SCREEN)

func statusChange(status):
	if status == GAME_STATUS.MENU:
		$NetworkManager.reset()


var locallyConnected = false


func gotmLobbyChanged():
	print(\"LOBBY CHANGED! \", Gotm.lobby)
	$vboxButtonPanel/joinLobby.visible = true
	Gotm.disconnect(\"lobby_changed\", self,\"gotmLobbyChanged\")
"

[sub_resource type="GDScript" id=2]
script/source = "extends Node

export var port:int = 7777
export var maxPlayers:int = 2

var peer:NetworkedMultiplayerENet = NetworkedMultiplayerENet.new()

func _ready():
	get_tree().connect(\"network_peer_connected\", self, \"network_peer_connected\")
	get_tree().connect(\"network_peer_disconnected\", self, \"network_peer_disconnected\")
	get_tree().connect(\"connected_to_server\", self, \"connected_to_server\")
	get_tree().connect(\"connection_failed\", self, \"connection_failed\")
	get_tree().connect(\"server_disconnected\", self, \"server_disconnected\")


var players = []

func network_peer_connected(peer):
	players.push_back(peer)
	if peer != 1:
		GameManager.emit_signal(\"playerJoin\",peer)
	else:
		pass #should have already done

func network_peer_disconnected(peer):
	players.erase(peer)
	GameManager.emit_signal(\"playerLeave\",peer)

func connected_to_server():
	GameManager.emit_signal(\"joinLobby\")
	players.push_back(get_tree().get_network_unique_id())
	for p in players:
		GameManager.emit_signal(\"playerJoin\",p)

func connection_failed():
	clearLobby()

func server_disconnected():
	clearLobby()

func clearLobby():
	for p in players:
		GameManager.emit_signal(\"playerLeave\",p)
	GameManager.emit_signal(\"leaveLobby\")


func joinLobby(hostname:String):
	reset()
	peer.create_client(hostname,port)
	get_tree().network_peer = peer


func hostLobby():
	reset()
	Gotm.host_lobby()
	var e = peer.create_server(port,maxPlayers)
	if e:
		GameManager.emit_signal(\"error\",\"Host Error:\" + String(e))
	else:
		get_tree().network_peer = peer
		GameManager.emit_signal(\"joinLobby\")
		GameManager.emit_signal(\"playerJoin\",1)

func tryConnectFromLink():
	var peer = NetworkedMultiplayerENet.new()
	peer.create_client(\"127.0.0.1\", 8070)
	yield(peer,\"connection_succeeded\")
	get_tree().network_peer = peer
	


func reset():
	if get_tree().has_network_peer():
		peer.close_connection()
		peer = NetworkedMultiplayerENet.new()
		get_tree().network_peer = null
		connection_failed()



"

[sub_resource type="GDScript" id=3]
script/source = "extends Node

export var playerScene:PackedScene


func _ready():
	GameManager.connect(\"joinLobby\",self,\"joinLobby\")
	GameManager.connect(\"leaveLobby\",self,\"leaveLobby\")
	GameManager.connect(\"playerJoin\",self,\"playerJoin\")

func joinLobby():
	pass


func playerJoin(id):
	var p = playerScene.instance()
	p.set_network_master(id)
	p.name = \"P\" + String(id)
	add_child(p,false)

func leaveLobby():
	for i in get_children():
		i.queue_free()
"

[node name="GameManager" type="Node"]
script = SubResource( 1 )

[node name="NameList" type="Node" parent="."]
script = ExtResource( 1 )

[node name="NetworkManager" type="Node" parent="."]
script = SubResource( 2 )
maxPlayers = 1

[node name="Players" type="Node" parent="."]
script = SubResource( 3 )
playerScene = ExtResource( 2 )
